
slE1 = newsl; Surface Loop(slE1) = {sE1Vert1, sE1Vert2, sE1Vert3, sE1Vert4, sE1Upper, sE1Lower};
vE1 = newv; Volume(vE1) = {slE1};

slE2 = newsl; Surface Loop(slE2) = {sE2Vert1, sE2Vert2, sE2Vert3, sE2Vert4, sE2Upper, sE2Lower,
       	      	      		    sE1Vert1, sE1Vert2, sE1Vert3, sE1Vert4};
vE2 = newv; Volume(vE2) = {slE2};

slE3 = newsl; Surface Loop(slE3) = {sE3Vert1, sE3Vert2, sE3Vert3, sE3Vert4, sE3Upper, sE3Lower,
       	      	      		    sE2Vert1, sE2Vert2, sE2Vert3, sE2Vert4};
vE3 = newv; Volume(vE3) = {slE3};



