Include "params.geo";
Include 'in_common.geo';

Physical Volume(1) = {salineVolume, innerRetinaVolume, outerRetinaVolume};
Physical Surface(9) = {cylinderSurf1,cylinderSurf2,cylinderSurf3,cylinderSurf4,
	 	       uCylinderSurf, vert_ret_surf1, vert_ret_surf2, 
		       vert_ret_surf3, vert_ret_surf4};